Sentiment Analysis of Game of Thrones by Clara Laursen & Liva Rask.
…
This word cloud visualises the most frequent meaningful words in
Game of Thrones.

length(unique(got_no_numeric$word))

## [1] 11209

got_top100 <- got_no_numeric %>%
  count(word) %>%
  arrange(-n) %>%
  head(100)

got_top100

## # A tibble: 100 × 2
##    word       n
##    <chr>  <int>
##  1 lord    1341
##  2 ser     1023
##  3 jon      787
##  4 ned      743
##  5 tyrion   591
##  6 eyes     567
##  7 hand     567
##  8 king     542
##  9 father   512
## 10 told     504
## # ℹ 90 more rows
…
## Sentiment analysis To analyse the emotional vocabulary of Game of
Thrones, I used the AFINN and NRC lexicons. AFINN assigns words
scores from negative to positive, while NRC groups words into emotion
categories such as fear, trust, joy, and sadness.

got_afinn <- got_stop %>%
  inner_join(get_sentiments("afinn"))
got_afinn

## # A tibble: 13,058 × 3
##    got_text                                                          word  value
##    <chr>                                                             <chr> <dbl>
##  1 "                  A GAME OF THRONES\n\n\n            Book One o… fire     -2
##  2 "                              previous | Table of Contents | ne… dead     -3
##  3 "                              previous | Table of Contents | ne… dead     -3
##  4 "                              previous | Table of Contents | ne… smile     2
##  5 "                              previous | Table of Contents | ne… dead     -3
##  6 "                              previous | Table of Contents | ne… dead     -3
##  7 "                              previous | Table of Contents | ne… dead     -3
##  8 "                              previous | Table of Contents | ne… dead     -3
##  9 "                              previous | Table of Contents | ne… dead     -3
## 10 "                              previous | Table of Contents | ne… drag     -1
## # ℹ 13,048 more rows
…
