State Apologies
…
  "fremtid", "future",
  "kommende", "future",
  "generationer", "future",
  "ny", "future"
)

theme_counts <- tokens %>%
  inner_join(theme_dict, by = "word") %>%
  count(text_label, year, theme, sort = TRUE)

theme_counts

## # A tibble: 30 × 4
##    text_label                       year theme              n
##    <chr>                           <dbl> <chr>          <int>
##  1 Godhavn Boys speech 2019         2019 state             12
##  2 Godhavn Boys speech 2019         2019 responsibility    11
##  3 Godhavn Boys speech 2019         2019 apology            8
##  4 Godhavn Boys speech 2019         2019 reconciliation     8
##  5 Occupation/refugees speech 2005  2005 state              8
##  6 Spiral case speech 2025          2025 responsibility     8
##  7 Spiral case speech 2025          2025 apology            7
##  8 Spiral case speech 2025          2025 harm               7
##  9 Spiral case speech 2025          2025 reconciliation     7
## 10 Thule/Inughuit declaration 1999  1999 state              7
## # ℹ 20 more rows
…
  "danmark", "state actor",
  "staten", "state actor",
  "regeringen", "state actor",
  "myndigheder", "state actor",
  "myndighederne", "state actor",
  "rigsfællesskabet", "state actor"
)

actor_group_counts <- tokens %>%
  inner_join(actor_groups, by = "word") %>%
  count(text_label, year, actor_group, sort = TRUE)

actor_group_counts

## # A tibble: 21 × 4
##    text_label                        year actor_group          n
##    <chr>                            <dbl> <chr>            <int>
##  1 Spiral case speech 2025           2025 victim address      35
##  2 Godhavn Boys speech 2019          2019 collective actor    26
##  3 Spiral case speech 2025           2025 collective actor    24
##  4 Godhavn Boys speech 2019          2019 speaker             23
##  5 Godhavn Boys speech 2019          2019 victim address      23
##  6 Greenlandic children speech 2022  2022 victim address      22
##  7 Greenlandic children letter 2020  2020 victim address      16
##  8 Godhavn Boys speech 2019          2019 state actor         11
##  9 Greenlandic children speech 2022  2022 collective actor    10
## 10 Occupation/refugees speech 2005   2005 collective actor    10
## # ℹ 11 more rows
…
